02_build/iladata_rx2.vcd
$date
        2025-Jan-28 23:03:56
$end
$version
        Vivado v2024.1 (64-bit)
$end
$timescale
        1ps
$end
$scope module dut $end
$var reg 2 " eth_top_inst/eth_rx_inst/Rxd_IBUF [1:0] $end
$var reg 8 $ eth_top_inst/eth_rx_inst/rByte_d1 [7:0] $end
$var reg 8 , eth_top_inst/eth_tx_inst/async_fifo_inst/fifomem/rdata [7:0] $end
$var reg 3 4 eth_top_inst/eth_tx_inst/wTx_Ctrl_FSM_State [2:0] $end
$var reg 2 7 \eth_top_inst/eth_tx_inst/rTx_Data_d1_reg[1]_0 [1:0] $end
$var reg 1 9 eth_top_inst/eth_rx_inst/Crc_Valid_OBUF $end
$var reg 1 : eth_top_inst/eth_rx_inst/rByte_Rdy $end
$var reg 1 ; eth_top_inst/Tx_En_OBUF $end
$var reg 1 < eth_top_inst/eth_tx_inst/wFifo_Rd_Valid $end
$var reg 1 = _TRIGGER $end
$var reg 1 > _WINDOW $end
$var reg 1 ? _GAP $end
$upscope $end
$enddefinitions $end
#0
$dumpvars
b0 "
b1100000 $
b0 ,
b0 4
b0 7
09
0:
0;
0<
0=
1>
0?
$end
#2012
b1 "
#2043
b11 "
#2048
1:
1=
#2049
b11111111 $
0:
#2052
1:
#2053
0:
#2056
1:
#2057
0:
#2060
1:
#2061
0:
#2064
1:
#2065
0:
#2068
b0 "
1:
#2069
0:
#2072
b10 "
1:
#2073
b11 "
b0 $
0:
#2074
b0 "
#2076
b10 "
1:
#2077
b1 "
b1110 $
0:
#2078
b0 "
#2079
b11 "
#2080
b10 "
1:
#2081
b11000110 $
0:
#2082
b11 "
#2083
b10 "
#2084
b1 "
1:
#2085
b10111010 $
0:
#2087
b10 "
#2088
1:
#2089
b1 "
b10010101 $
0:
#2090
b11 "
#2091
b0 "
#2092
1:
#2093
b10 "
b110110 $
0:
#2094
b0 "
#2096
1:
#2097
b1000 $
0:
#2100
b1 "
1:
#2101
b0 $
0:
#2102
b0 "
#2103
b1 "
#2104
b0 "
1:
#2105
b1000101 $
0:
#2108
1:
#2109
b0 $
0:
#2112
1:
#2113
b1 "
0:
#2116
b0 "
1:
#2117
b1010100 $
0:
#2120
b1 "
1:
#2121
b0 "
b0 $
0:
#2124
1:
#2125
b1 $
0:
#2128
1:
#2129
b0 $
0:
#2132
1:
#2133
0:
#2135
b1 "
#2136
b0 "
1:
#2137
b1000000 $
0:
#2140
b10 "
1:
#2141
b1 "
b0 $
0:
#2142
b11 "
#2144
1:
#2145
b0 "
b11110110 $
0:
#2146
b11 "
#2148
b0 "
1:
#2149
b11110011 $
0:
#2151
b11 "
#2152
b0 "
1:
#2153
b10 "
b11000000 $
0:
#2156
b1 "
1:
#2157
b0 "
b10101000 $
0:
#2160
1:
#2161
b1 "
b1 $
0:
#2162
b10 "
#2163
b1 "
#2164
b0 "
1:
#2165
b1100100 $
0:
#2167
b11 "
#2168
b0 "
1:
#2169
b10 "
b11000000 $
0:
#2172
b1 "
1:
#2173
b0 "
b10101000 $
0:
#2176
b1 "
1:
#2177
b0 "
b1 $
0:
#2180
1:
#2181
b10 "
0:
#2182
b0 "
#2183
b1 "
#2184
1:
#2185
b1001000 $
0:
#2186
b10 "
#2187
b1 "
#2188
b0 "
1:
#2189
b11 "
b1100101 $
0:
#2190
b10 "
#2191
b1 "
#2192
b0 "
1:
#2193
b11 "
b1101100 $
0:
#2194
b10 "
#2195
b1 "
#2196
b11 "
1:
#2197
0:
#2198
b10 "
#2199
b1 "
#2200
b0 "
1:
#2201
b11 "
b1101111 $
0:
#2202
b10 "
#2203
b0 "
#2204
1:
#2205
b101100 $
0:
#2206
b10 "
#2207
b0 "
#2208
b1 "
1:
#2209
b10 "
b100000 $
0:
#2210
b0 "
#2211
b1 "
#2212
b0 "
1:
#2213
b1001001 $
0:
#2214
b1 "
#2216
b0 "
1:
#2217
b1010000 $
0:
#2218
b10 "
#2219
b0 "
#2220
1:
#2221
b100000 $
0:
#2222
b1 "
#2224
1:
#2225
b0 "
b1010000 $
0:
#2226
b10 "
#2227
b1 "
#2228
b11 "
1:
#2229
b0 "
b1100001 $
0:
#2230
b10 "
#2231
b1 "
#2232
b11 "
1:
#2233
b10 "
b1100011 $
0:
#2235
b1 "
#2236
1:
#2237
b1101011 $
0:
#2238
b10 "
#2239
b1 "
#2240
b0 "
1:
#2241
b1 "
b1100101 $
0:
#2242
b11 "
#2243
b1 "
#2244
1:
#2245
b0 "
b1110100 $
0:
#2246
b10 "
#2247
b0 "
#2248
1:
#2249
b100001 $
0:
#2250
b10 "
#2251
b0 "
#2252
b1 "
1:
#2253
b10 "
b100000 $
0:
#2254
b0 "
#2255
b1 "
#2256
b0 "
1:
#2257
b1001001 $
0:
#2258
b10 "
#2259
b0 "
#2260
b10 "
1:
#2261
b11 "
b100000 $
0:
#2262
b10 "
#2263
b1 "
#2264
1:
#2265
b1101110 $
0:
#2266
b10 "
#2267
b1 "
#2268
1:
#2269
b1100101 $
0:
#2270
b10 "
#2271
b1 "
#2272
b0 "
1:
#2273
b1 "
0:
#2274
b10 "
#2275
b1 "
#2276
b0 "
1:
#2277
b1100100 $
0:
#2278
b10 "
#2279
b0 "
#2280
1:
#2281
b1 "
b100000 $
0:
#2282
b11 "
#2283
b1 "
#2284
b11 "
1:
#2285
b1110100 $
0:
#2286
b10 "
#2287
b1 "
#2288
b0 "
1:
#2289
b1101111 $
0:
#2290
b10 "
#2291
b0 "
#2292
b10 "
1:
#2293
b1 "
b100000 $
0:
#2294
b10 "
#2295
b1 "
#2296
b11 "
1:
#2297
b1100110 $
0:
#2298
b10 "
#2299
b1 "
#2300
b10 "
1:
#2301
b0 "
b1101111 $
0:
#2302
b11 "
#2303
b1 "
#2304
1:
#2305
b11 "
b1110010 $
0:
#2306
b10 "
#2307
b1 "
#2308
b0 "
1:
#2309
b1101101 $
0:
#2310
b10 "
#2311
b0 "
#2312
b1 "
1:
#2313
b0 "
b100000 $
0:
#2314
b10 "
#2315
b1 "
#2316
b10 "
1:
#2317
b11 "
b1100001 $
0:
#2318
b10 "
#2319
b1 "
#2320
b0 "
1:
#2321
b1101110 $
0:
#2322
b10 "
#2323
b0 "
#2324
1:
#2325
b100000 $
0:
#2326
b11 "
#2327
b1 "
#2328
1:
#2329
b0 "
b1110000 $
0:
#2330
b10 "
#2331
b1 "
#2332
b11 "
1:
#2333
b0 "
b1100001 $
0:
#2334
b10 "
#2335
b1 "
#2336
b11 "
1:
#2337
b10 "
b1100011 $
0:
#2339
b1 "
#2340
1:
#2341
b1101011 $
0:
#2342
b10 "
#2343
b1 "
#2344
b0 "
1:
#2345
b1 "
b1100101 $
0:
#2346
b11 "
#2347
b1 "
#2348
b0 "
1:
#2349
b1110100 $
0:
#2350
b10 "
#2351
b0 "
#2352
b11 "
1:
#2353
b100000 $
0:
#2354
b10 "
#2355
b1 "
#2356
b10 "
1:
#2357
b1 "
b1101111 $
0:
#2358
b10 "
#2359
b1 "
#2360
b0 "
1:
#2361
b1100110 $
0:
#2362
b10 "
#2363
b0 "
#2364
b1 "
1:
#2365
b0 "
b100000 $
0:
#2366
b10 "
#2367
b1 "
#2368
b0 "
1:
#2369
b1 "
b1100001 $
0:
#2370
b11 "
#2371
b1 "
#2372
b0 "
1:
#2373
b1110100 $
0:
#2374
b10 "
#2375
b0 "
#2376
1:
#2377
b11 "
b100000 $
0:
#2378
b10 "
#2379
b1 "
#2380
1:
#2381
b1101100 $
0:
#2382
b10 "
#2383
b1 "
#2384
1:
#2385
b0 "
b1100101 $
0:
#2386
b10 "
#2387
b1 "
#2388
b11 "
1:
#2389
b0 "
b1100001 $
0:
#2390
b11 "
#2391
b1 "
#2392
b0 "
1:
#2393
b1 "
b1110011 $
0:
#2394
b11 "
#2395
b1 "
#2396
b0 "
1:
#2397
b1110100 $
0:
#2398
b10 "
#2399
b0 "
#2400
b10 "
1:
#2401
b1 "
b100000 $
0:
#2402
b11 "
#2403
b0 "
#2404
1:
#2405
b1 "
b110110 $
0:
#2406
b11 "
#2407
b0 "
#2408
1:
#2409
b110100 $
0:
#2410
b10 "
#2411
b0 "
#2412
b10 "
1:
#2413
b0 "
b100000 $
0:
#2414
b10 "
#2415
b1 "
#2416
1:
#2417
b10 "
b1100010 $
0:
#2418
b11 "
#2419
b1 "
#2420
b0 "
1:
#2421
b1 "
b1111001 $
0:
#2422
b11 "
#2423
b1 "
#2424
1:
#2425
b1110100 $
0:
#2426
b10 "
#2427
b1 "
#2428
b11 "
1:
#2429
b0 "
b1100101 $
0:
#2430
b11 "
#2431
b1 "
#2432
b10 "
1:
#2433
b11 "
b1110011 $
0:
#2434
b10 "
#2435
b0 "
#2436
b10 "
1:
#2437
b101110 $
0:
#2440
1:
#2441
b11 "
b10101010 $
0:
#2442
b10 "
#2443
b0 "
#2444
b1 "
1:
#2445
b0 "
b101110 $
0:
#2446
b1 "
#2447
b11 "
#2448
b10 "
1:
#2449
b11010001 $
0:
#2450
b0 "
#2451
b11 "
#2452
b0 "
1:
#2453
b11001010 $
0:
#2454
19
#2503
09
