02_build/iladata.vcd
$date
        2025-Feb-01 10:43:08
$end
$version
        Vivado v2024.1 (64-bit)
$end
$timescale
        1ps
$end
$scope module dut $end
$var reg 8 " eth_top_inst/eth_tx_inst/rdata [7:0] $end
$var reg 32 * eth_top_inst/eth_tx_inst/rCrc_Computed [31:0] $end
$var reg 2 J Txd_OBUF [1:0] $end
$var reg 2 L Rxd_IBUF [1:0] $end
$var reg 8 N eth_top_inst/eth_rx_inst/rByte_d1 [7:0] $end
$var reg 32 V eth_top_inst/eth_rx_inst/rCrc_Computed_d3 [31:0] $end
$var reg 1 v Crc_Valid_OBUF $end
$var reg 1 w Crs_Dv_IBUF $end
$var reg 1 x eth_top_inst/eth_rx_inst/rByte_Rdy_d1 $end
$var reg 1 y Tx_En_OBUF $end
$var reg 1 z eth_top_inst/eth_tx_inst/wFifo_Rd_Valid $end
$var reg 1 { _TRIGGER $end
$var reg 1 | _WINDOW $end
$var reg 1 } _GAP $end
$upscope $end
$enddefinitions $end
#0
$dumpvars
b0 "
b0 *
b0 J
b0 L
b0 N
b0 V
0v
0w
0x
0y
0z
0{
1|
0}
$end
#903
b1 "
#1004
b1 J
1y
#1024
1w
1{
#1030
b1 L
#1035
b11 J
#1040
b11111111000000000000000000000000 *
#1044
b11111111111111110000000000000000 *
#1048
b11111111111111111111111100000000 *
#1052
b11111111111111111111111111111111 *
#1056
b11010010111111010001000001110010 *
#1060
b1000001110110011110110100000000 *
b10 J
#1061
b0 J
b11 L
#1064
b111100010011010101011101001100 *
#1067
b11111111 N
1x
#1068
b10101101010101001010111101100001 *
0x
#1071
1x
#1072
b11101000000110101110101011101100 *
0x
#1075
1x
#1076
b1111011010101100101101100110100 *
0x
#1079
1x
#1080
b11110011110011010100110101100011 *
b1 J
b11111111000000000000000000000000 V
0x
#1081
b0 J
#1083
1x
#1084
b1110001010011010010001010110100 *
b11 J
b11111111111111110000000000000000 V
0x
#1086
b10 L
#1087
b0 L
1x
#1088
b110011011111010011101010110111 *
b11111111111111111111111100000000 V
0x
#1091
b10 N
1x
#1092
b10101010001101100101101100010101 *
b1 J
b11111111111111111111111111111111 V
0x
#1093
b0 J
1z
#1094
b10 "
0z
#1095
b0 N
1x
#1096
b11001000011100100000110110101011 *
b10 J
b11010010111111010001000001110010 V
0x
#1097
b0 J
1z
#1098
b11 "
0z
#1099
1x
#1100
b1111101110000001000011011001100 *
b11 J
b1000001110110011110110100000000 V
0x
#1101
b0 J
1z
#1102
b100 "
0z
#1103
1x
#1104
b11011001101001001111000000101010 *
b111100010011010101011101001100 V
0x
#1105
b1 J
1z
#1106
b101 "
b0 J
b1 L
0z
#1107
b0 L
1x
#1108
b1110000011010100011010110010 *
b1 J
b10101101010101001010111101100001 V
0x
#1109
1z
#1110
b110 "
b0 J
b11 L
0z
#1111
b1 N
1x
#1112
b10000111000010011100010011100100 *
b10 J
b11101000000110101110101011101100 V
0x
#1113
b1 J
1z
#1114
b111 "
b0 J
0z
#1115
b11111111 N
1x
#1116
b10011100100000010110010100011101 *
b11 J
b1111011010101100101101100110100 V
0x
#1117
b1 J
1z
#1118
b1000 "
b0 J
b1 L
0z
#1119
b0 L
1x
#1120
b101111111111001001011110010010 *
b11110011110011010100110101100011 V
0x
#1121
b10 J
1z
#1122
b1001 "
b0 J
b10 L
0z
#1123
b0 L
b1 N
1x
#1124
b11000010111101110110100101000000 *
b1 J
b1110001010011010010001010110100 V
0x
#1125
b10 J
1z
#1126
b1010 "
b0 J
b11 L
0z
#1127
b0 L
#1128
b11011101110000001110000111010000 *
b10 J
#1129
1z
#1130
b1011 "
b0 J
0z
#1131
b1 L
#1132
b10110100110110010001010010100110 *
b11 J
b0 L
#1133
b10 J
1z
#1134
b1100 "
b0 J
b1 L
0z
#1136
b1111010110100011110100111001100 *
b0 L
#1137
b11 J
1z
#1138
b1101 "
b0 J
b10 L
0z
#1139
b1 L
#1140
b1001001000111001111110011010100 *
b1 J
b0 L
#1141
b11 J
1z
#1142
b1110 "
b0 J
b11 L
0z
#1143
b1 L
#1144
b101101010001001001100100000001 *
b10 J
b0 L
#1145
b11 J
1z
#1146
b1111 "
b0 J
0z
#1147
b10 L
#1148
b1000010100100001011011010000101 *
b11 J
b0 L
#1149
1z
#1150
b10000 "
b0 J
b1 L
0z
#1151
b10 L
#1152
b11011111001011010001010100000101 *
b0 L
#1153
1z
#1154
b10001 "
b1 J
b10 L
0z
#1155
b0 J
#1156
b10111111000000000010011001110011 *
b1 J
b0 L
#1157
b0 J
1z
#1158
b10010 "
b1 J
b11 L
0z
#1159
b0 J
b10 L
#1160
b1110001000000011110111111011111 *
b10 J
b0 L
#1161
b0 J
1z
#1162
b10011 "
b1 J
0z
#1163
b0 J
b11 L
#1164
b110111101001100101000001101111 *
b11 J
b0 L
#1165
b0 J
1z
#1166
b10100 "
b1 J
b1 L
0z
#1167
b0 J
b11 L
#1168
b10001011100001100111010011001010 *
b0 L
#1169
b1 J
1z
#1170
b10101 "
b10 L
0z
#1171
b0 J
b11 L
#1172
b10110011111000101001011000101010 *
b1 J
b0 L
#1173
1z
#1174
b10110 "
b11 L
0z
#1175
b0 J
#1176
b1100100110101110010000000100110 *
b10 J
b0 L
#1177
b1 J
1z
#1178
b10111 "
0z
#1179
b0 J
#1180
b11110100101111110000100000000001 *
b11 J
b1 L
#1181
b1 J
b0 L
1z
#1182
b11000 "
b1 L
0z
#1183
b0 J
b0 L
#1184
b100110001000101110010111010100 *
b1 L
#1185
b10 J
b0 L
1z
#1186
b11001 "
b1 J
b10 L
0z
#1187
b0 J
b0 L
#1188
b1000000111101100100001111110011 *
b1 J
b1 L
#1189
b10 J
b0 L
1z
#1190
b11010 "
b1 J
b11 L
0z
#1191
b0 J
b0 L
#1192
b10010010100111010001001010101000 *
b10 J
b1 L
#1193
b0 L
1z
#1194
b11011 "
b1 J
0z
#1195
b0 J
b1 L
#1196
b11110111111111111010000000111111 *
b11 J
#1197
b10 J
b0 L
1z
#1198
b11100 "
b1 J
b1 L
0z
#1199
b0 J
#1200
b11101110111101101111010011111100 *
#1201
b11 J
b0 L
1z
#1202
b11101 "
b1 J
b10 L
0z
#1203
b0 J
b1 L
#1204
b1110010111001101111101100000001 *
b1 J
#1205
b11 J
b0 L
1z
#1206
b11110 "
b1 J
b11 L
0z
#1207
b0 J
b1 L
#1208
b11000110011100010101010100111001 *
b10 J
#1209
b11 J
b0 L
1z
#1210
b11111 "
b1 J
0z
#1211
b0 J
b10 L
#1212
b1110111110011100010101110110011 *
b11 J
b1 L
#1213
b0 L
1z
#1214
b100000 "
b1 J
b1 L
0z
#1215
b0 J
b10 L
#1216
b1101000101011100111001100101 *
b1 L
#1217
b0 L
1z
#1218
b100001 "
b10 J
b10 L
0z
#1219
b0 J
#1220
b11010100101110010100111101011100 *
b1 J
b1 L
#1221
b0 J
b0 L
1z
#1222
b100010 "
b10 J
b11 L
0z
#1223
b0 J
b10 L
#1224
b11111100011000100101101101000011 *
b10 J
b1 L
#1225
b0 J
b0 L
1z
#1226
b100011 "
b10 J
0z
#1227
b0 J
b11 L
#1228
b11101000010010111101110000011000 *
b11 J
b1 L
#1229
b0 J
b0 L
1z
#1230
b100100 "
b10 J
b1 L
0z
#1231
b0 J
b11 L
#1232
b1100011111000010100110101110101 *
b1 L
#1233
b1 J
b0 L
1z
#1234
b100101 "
b10 J
b10 L
0z
#1235
b0 J
b11 L
#1236
b11001110000011010110111110100010 *
b1 J
b1 L
#1237
b0 L
1z
#1238
b100110 "
b10 J
b11 L
0z
#1239
b0 J
#1240
b10100001000100001111010001100001 *
b10 J
b1 L
#1241
b1 J
b0 L
1z
#1242
b100111 "
b10 J
0z
#1243
b0 J
#1244
b111010000110110010101101001010 *
b11 J
b10 L
#1245
b1 J
b0 L
1z
#1246
b101000 "
b10 J
b1 L
0z
#1247
b0 J
b0 L
#1248
b11100001001110111110100101000011 *
b10 L
#1249
b10 J
b0 L
1z
#1250
b101001 "
b10 L
0z
#1251
b0 J
b0 L
#1252
b1000100000110110110010110100 *
b1 J
b10 L
#1253
b10 J
b0 L
1z
#1254
b101010 "
b11 L
0z
#1255
b0 J
b0 L
#1256
b1011100101101001000001100011000 *
b10 J
b10 L
#1257
b0 L
1z
#1258
b101011 "
0z
#1259
b0 J
b1 L
#1260
b11010100010010000101010001110 *
b11 J
b10 L
#1261
b10 J
b0 L
1z
#1262
b101100 "
b1 L
0z
#1263
b0 J
#1264
b1110100101001000011000111100000 *
b10 L
#1265
b11 J
b0 L
1z
#1266
b101101 "
b10 J
b10 L
0z
#1267
b0 J
b1 L
#1268
b1000000101001001100010100100111 *
b1 J
b10 L
#1269
b11 J
b0 L
1z
#1270
b101110 "
b10 J
b11 L
0z
#1271
b0 J
b1 L
#1272
b110010100101111010001001010110 *
b10 J
b10 L
#1273
b11 J
b0 L
1z
#1274
b101111 "
b10 J
0z
#1275
b0 J
b10 L
#1276
b10001100111011101000000100100001 *
b11 J
#1277
b0 L
1z
#1278
b110000 "
b10 J
b1 L
0z
#1279
b0 J
b10 L
#1280
b110101001101100010110000001011 *
#1281
b0 L
1z
#1282
b110001 "
b11 J
b10 L
0z
#1283
b0 J
#1284
b1100011001111000011000010000101 *
b1 J
#1285
b0 J
b0 L
1z
#1286
b110010 "
b11 J
b11 L
0z
#1287
b0 J
b10 L
#1288
b11110011011011010010000101000 *
b10 J
#1289
b0 J
b0 L
1z
#1290
b110011 "
b11 J
0z
#1291
b0 J
b11 L
#1292
b101111011111100111101101010011 *
b11 J
b10 L
#1293
b0 J
b0 L
1z
#1294
b110100 "
b11 J
b1 L
0z
#1295
b0 J
b11 L
#1296
b10011111100111111111000010101110 *
b10 L
#1297
b1 J
b0 L
1z
#1298
b110101 "
b11 J
b10 L
0z
#1299
b0 J
b11 L
#1300
b11000010010001110000101000100111 *
b1 J
b10 L
#1301
b0 L
1z
#1302
b110110 "
b11 J
b11 L
0z
#1303
b0 J
#1304
b100001011110011101100111001111 *
b10 J
b10 L
#1305
b1 J
b0 L
1z
#1306
b110111 "
b11 J
0z
#1307
b0 J
#1308
b10110010000101101110011101100 *
b11 J
b11 L
#1309
b1 J
b0 L
1z
#1310
b111000 "
b11 J
b1 L
0z
#1311
b0 J
b0 L
#1312
b11000011000101011010011000001101 *
b11 L
#1313
b10 J
b0 L
1z
#1314
b111001 "
b11 J
b10 L
0z
#1315
b0 J
b0 L
#1316
b10000100011100100011111000001000 *
b1 J
b11 L
#1317
b10 J
b0 L
1z
#1318
b111010 "
b11 J
b11 L
0z
#1319
b0 J
b0 L
#1320
b10000011010110001001110110001001 *
b10 J
b11 L
#1321
b0 L
1z
#1322
b111011 "
b11 J
0z
#1323
b0 J
b1 L
#1324
b10000000111010010101010100100110 *
b11 J
b11 L
#1325
b10 J
b0 L
1z
#1326
b111100 "
b11 J
b1 L
0z
#1327
b0 J
#1328
b10110001100001000110101000000001 *
b11 L
#1329
b11 J
b0 L
1z
#1330
b111101 "
b10 L
0z
#1331
b0 J
b1 L
#1332
b10001010110110110010011111110110 *
b1 J
b11 L
#1333
b11 J
b0 L
1z
#1334
b111110 "
b11 L
0z
#1335
b0 J
b1 L
#1336
b11011110001111100010111110010010 *
b10 J
b11 L
#1337
b11 J
b0 L
1z
#1338
b111111 "
0z
#1339
b0 J
b10 L
#1340
b1101101111000011111001100001 *
b11 J
b11 L
#1341
b0 L
1z
#1342
b1000000 "
b1 L
0z
#1343
b0 J
b10 L
#1344
b1011110110111000010111101000000 *
b11 L
#1345
b0 L
1z
#1346
b1000001 "
b10 L
0z
#1347
b1 J
#1348
b11010010010111000011001110100010 *
b11 L
#1349
b0 J
b0 L
1z
#1350
b1000010 "
b11 L
0z
#1351
b1 J
b10 L
#1352
b11101011110100110000000001111100 *
b10 J
b11 L
#1353
b0 J
b0 L
1z
#1354
b1000011 "
0z
#1355
b1 J
b11 L
#1356
b10011100010000010000100100110 *
b11 J
#1357
b0 J
b0 L
1z
#1358
b1000100 "
b1 L
0z
#1359
b1 J
b11 L
#1360
b11101111110010011111001001111011 *
b0 J
#1361
b1 J
b0 L
1z
#1362
b1000101 "
b0 J
b10 L
0z
#1363
b1 J
b11 L
#1364
b1100100100010110000101101000010 *
#1365
b0 L
1z
#1366
b1000110 "
b0 J
b11 L
0z
#1367
b1 J
#1368
b1001100000000101111000100100101 *
b10 J
#1369
b1 J
b0 L
1z
#1370
b1000111 "
b0 J
0z
#1371
b1 J
#1372
b110111101011101110110011110 *
b11 J
#1373
b1 J
b1 L
1z
#1374
b1001000 "
b0 J
0z
#1375
b1 J
b0 L
#1376
b101101000010110111000000100000 *
b0 J
#1377
b10 J
b1 L
1z
#1378
b1001001 "
b0 J
b10 L
0z
#1379
b1 J
b0 L
#1380
b10010001010001100000110110010111 *
#1381
b10 J
b1 L
1z
#1382
b1001010 "
b0 J
b11 L
0z
#1383
b1 J
b0 L
#1384
b10110011111110000101011001010011 *
b10 J
#1385
b1 L
1z
#1386
b1001011 "
b0 J
b0 L
0z
#1387
b1 J
b1 L
#1388
b10110110110110101011111100011011 *
b11 J
b0 L
#1389
b10 J
b1 L
1z
#1390
b1001100 "
b0 J
0z
#1391
b1 J
#1392
b10111001110111110110010011000110 *
b0 J
b0 L
#1393
b11 J
b1 L
1z
#1394
b1001101 "
b0 J
b10 L
0z
#1395
b1 J
b1 L
#1396
b11011111110101100101101011010111 *
b0 L
#1397
b11 J
b1 L
1z
#1398
b1001110 "
b0 J
b11 L
0z
#1399
b1 J
b1 L
#1400
b11000010000001110100001110001101 *
b10 J
b0 L
#1401
b11 J
b1 L
1z
#1402
b1001111 "
b0 J
b0 L
0z
#1403
b1 J
b10 L
#1404
b11010000101011010111101111000100 *
b11 J
b0 L
#1405
b1 L
1z
#1406
b1010000 "
b0 J
0z
#1407
b1 J
b10 L
#1408
b10101000101110000001100001011110 *
b0 J
b0 L
#1409
b1 L
1z
#1410
b1010001 "
b1 J
b10 L
0z
#1412
b110101000100100111101010010010 *
b0 L
#1413
b0 J
b1 L
1z
#1414
b1010010 "
b1 J
b11 L
0z
#1415
b10 L
#1416
b11010000010110100110111011111101 *
b10 J
b0 L
#1417
b0 J
b1 L
1z
#1418
b1010011 "
b1 J
b0 L
0z
#1419
b11 L
#1420
b10010100101110110000101110011010 *
b11 J
b0 L
#1421
b0 J
b1 L
1z
#1422
b1010100 "
b1 J
0z
#1423
b11 L
#1424
b110000001011100010111010010010 *
b0 J
b0 L
#1425
b1 J
b1 L
1z
#1426
b1010101 "
b10 L
0z
#1427
b11 L
#1428
b10100000001101011010011000100110 *
b0 L
#1429
b1 L
1z
#1430
b1010110 "
b11 L
0z
#1432
b11011101011101111101010101101 *
b10 J
b0 L
#1433
b1 J
b1 L
1z
#1434
b1010111 "
b0 L
0z
#1436
b11111000011101100110101011100011 *
b11 J
b1 L
#1437
b1 J
1z
#1438
b1011000 "
0z
#1439
b0 L
#1440
b11110111101101110111001110010 *
b0 J
b1 L
#1441
b10 J
1z
#1442
b1011001 "
b1 J
b10 L
0z
#1443
b0 L
#1444
b1001101001111101000010110101 *
b1 L
#1445
b10 J
1z
#1446
b1011010 "
b1 J
b11 L
0z
#1447
b0 L
#1448
b1111011101101111110011000001110 *
b10 J
b1 L
#1449
1z
#1450
b1011011 "
b1 J
b0 L
0z
#1451
b1 L
#1452
b10111110011111111100110110000110 *
b11 J
#1453
b10 J
1z
#1454
b1011100 "
b1 J
0z
#1456
b101010110111100011111000101001 *
b0 J
#1457
b11 J
1z
#1458
b1011101 "
b1 J
b10 L
0z
#1459
b1 L
#1460
b11110010010001111011010000000000 *
#1461
b11 J
1z
#1462
b1011110 "
b1 J
b11 L
0z
#1463
b1 L
#1464
b11000111001010101000010101110000 *
b10 J
#1465
b11 J
1z
#1466
b1011111 "
b1 J
b0 L
0z
#1467
b10 L
#1468
b1110000100111100100011000111 *
b11 J
b1 L
#1469
1z
#1470
b1100000 "
b1 J
0z
#1471
b10 L
#1472
b101100110110001110011100110011 *
b0 J
b1 L
#1473
1z
#1474
b1100001 "
b10 J
b10 L
0z
#1475
b1 J
#1476
b100000010011000011011100100100 *
b1 L
#1477
b0 J
1z
#1478
b1100010 "
b10 J
b11 L
0z
#1479
b1 J
b10 L
#1480
b11010100100101000001011010100101 *
b10 J
b1 L
#1481
b0 J
1z
#1482
b1100011 "
b10 J
b0 L
0z
#1483
b1 J
b11 L
#1484
b11010111110101100010110010001000 *
b11 J
b1 L
#1485
b0 J
1z
#1486
b1100100 "
b10 J
0z
#1487
b1 J
b11 L
#1488
b11100101000011010000001001010001 *
b0 J
b1 L
#1489
b1 J
1z
#1490
b0 "
b10 J
b10 L
0z
#1491
b1 J
b11 L
#1492
b10000100010101000010011010101100 *
b0 J
b1 L
#1493
b1 J
#1494
b0 J
b11 L
#1495
b10 J
#1496
b0 J
b1 L
#1497
b1 J
#1498
b0 L
#1500
b10 J
b10 L
#1501
b1 J
b1 L
#1502
b10 J
#1503
b0 J
b0 L
#1504
b10 L
#1505
b11 J
b1 L
#1506
b10 J
b10 L
#1507
b0 L
#1508
b0 J
b10 L
0y
#1509
b1 L
#1510
b11 L
#1511
b0 L
#1512
b10 L
#1513
b1 L
#1514
b0 L
#1515
b1 L
#1516
b10 L
#1517
b1 L
#1518
b0 L
#1519
b1 L
#1520
b0 L
#1521
b10 L
#1522
b0 L
#1523
b1 L
#1526
b10 L
#1527
b1 L
#1528
b10 L
#1529
b0 L
#1531
b11 L
#1532
b10 L
#1534
b0 L
0w
